digraph "CustomExceptions.FileNotFound"
{
  edge [fontname="Helvetica",fontsize="10",labelfontname="Helvetica",labelfontsize="10"];
  node [fontname="Helvetica",fontsize="10",shape=record];
  Node3 [label="CustomExceptions.FileNot\lFound",height=0.2,width=0.4,color="black", fillcolor="grey75", style="filled", fontcolor="black"];
  Node4 -> Node3 [dir="back",color="midnightblue",fontsize="10",style="solid",fontname="Helvetica"];
  Node4 [label="CustomExceptions.Error",height=0.2,width=0.4,color="black", fillcolor="white", style="filled",URL="$classCustomExceptions_1_1Error.html"];
  Node5 -> Node4 [dir="back",color="midnightblue",fontsize="10",style="solid",fontname="Helvetica"];
  Node5 [label="Exception",height=0.2,width=0.4,color="grey75", fillcolor="white", style="filled"];
}
